%YAML 1.1
%TAG !u! tag:unity3d.com,2011:
--- !u!114 &11400000
MonoBehaviour:
  m_ObjectHideFlags: 0
  m_PrefabParentObject: {fileID: 0}
  m_PrefabInternal: {fileID: 0}
  m_GameObject: {fileID: 0}
  m_Enabled: 1
  m_EditorHideFlags: 0
  m_Script: {fileID: 11500000, guid: b907a0d7315c8f44fbf0ffe3c36b0ac5, type: 3}
  m_Name: Strike Array
  m_EditorClassIdentifier: 
  Cooldown: 0
  PercentDamage: 0
  Targets: []
